{
  "file_generated_by": "FlutterFire CLI",
  "purpose": "FirebaseAppID & ProjectID for this Firebase app in this directory",
  "GOOGLE_APP_ID": "1:321384008884:ios:0ac80130c43209dcd05be1",
  "FIREBASE_PROJECT_ID": "tic-tok-kjg",
  "GCM_SENDER_ID": "321384008884"
}